<?xml version="1.0" encoding="utf-8"?>
<svg version="1.1" id="Слой_1" xmlns="http://www.w3.org/2000/svg" xmlns:xlink="http://www.w3.org/1999/xlink" x="0px" y="0px" viewBox="0 0 14 14" enable-background="new 0 0 14 14" xml:space="preserve">
	<path fill="#ff1b41" d="M10.7,4.3c-0.4-0.4-1-0.4-1.4,0L6,7.6L4.7,6.3 c-0.4-0.4-1-0.4-1.4,0c-0.4,0.4-0.4,1,0,1.4l2,2c0.4,0.4,1,0.4,1.4,0c0,0,0.1-0.1,0.1-0.1l3.9-3.9C11.1,5.3,11.1,4.7,10.7,4.3z"/>
</svg>
